{
	"info": {
		"_postman_id": "c0fab1c9-ee27-c821-9af7-9ea500607f3a",
		"name": "RestfulCI",
		"schema": "https://schema.getpostman.com/json/collection/v2.1.0/collection.json"
	},
	"item": [
		{
			"name": "Ejemplo",
			"description": "",
			"item": [
				{
					"name": "Users",
					"request": {
						"method": "GET",
						"header": [
							{
								"key": "X-API-KEY",
								"value": "{{X-API-KEY}}"
							}
						],
						"body": {},
						"url": {
							"raw": "http://{{DOMAIN}}/api/example/users",
							"protocol": "http",
							"host": [
								"{{DOMAIN}}"
							],
							"path": [
								"api",
								"example",
								"users"
							]
						}
					},
					"response": []
				},
				{
					"name": "User",
					"request": {
						"method": "GET",
						"header": [
							{
								"key": "X-API-KEY",
								"value": "{{X-API-KEY}}"
							}
						],
						"body": {},
						"url": {
							"raw": "http://{{DOMAIN}}/api/example/users/id/1",
							"protocol": "http",
							"host": [
								"{{DOMAIN}}"
							],
							"path": [
								"api",
								"example",
								"users",
								"id",
								"1"
							]
						}
					},
					"response": []
				},
				{
					"name": "User XML",
					"request": {
						"method": "GET",
						"header": [
							{
								"key": "X-API-KEY",
								"value": "{{X-API-KEY}}"
							}
						],
						"body": {},
						"url": {
							"raw": "http://{{DOMAIN}}/api/example/users/id/1/format/xml",
							"protocol": "http",
							"host": [
								"{{DOMAIN}}"
							],
							"path": [
								"api",
								"example",
								"users",
								"id",
								"1",
								"format",
								"xml"
							]
						}
					},
					"response": []
				},
				{
					"name": "Users XML",
					"request": {
						"method": "GET",
						"header": [
							{
								"key": "X-API-KEY",
								"value": "{{X-API-KEY}}"
							}
						],
						"body": {},
						"url": {
							"raw": "http://{{DOMAIN}}/api/example/users/format/xml",
							"protocol": "http",
							"host": [
								"{{DOMAIN}}"
							],
							"path": [
								"api",
								"example",
								"users",
								"format",
								"xml"
							]
						}
					},
					"response": []
				},
				{
					"name": "User New",
					"request": {
						"method": "POST",
						"header": [
							{
								"key": "X-API-KEY",
								"value": "{{X-API-KEY}}"
							}
						],
						"body": {
							"mode": "formdata",
							"formdata": [
								{
									"key": "name",
									"value": "Mick",
									"description": "",
									"type": "text"
								},
								{
									"key": "email",
									"value": "mprieto@mprieto.co",
									"description": "",
									"type": "text"
								}
							]
						},
						"url": {
							"raw": "http://{{DOMAIN}}/api/example/users",
							"protocol": "http",
							"host": [
								"{{DOMAIN}}"
							],
							"path": [
								"api",
								"example",
								"users"
							]
						}
					},
					"response": []
				},
				{
					"name": "User Delete",
					"request": {
						"method": "DELETE",
						"header": [
							{
								"key": "X-API-KEY",
								"value": "{{X-API-KEY}}"
							}
						],
						"body": {
							"mode": "formdata",
							"formdata": [
								{
									"key": "name",
									"value": "miguel",
									"type": "text",
									"disabled": true
								},
								{
									"key": "email",
									"value": "mprieto",
									"type": "text",
									"disabled": true
								}
							]
						},
						"url": {
							"raw": "http://{{DOMAIN}}/api/example/users/id/1",
							"protocol": "http",
							"host": [
								"{{DOMAIN}}"
							],
							"path": [
								"api",
								"example",
								"users",
								"id",
								"1"
							]
						}
					},
					"response": []
				}
			]
		}
	]
}